…
<!-------------------------- Start your work below ---------------------------->

### Code Chunk for “vancouver\_trees” data set

**I will use “glimpse”, “summarize”, “group\_by” and “arrange”**

    ### EXPLORE HERE ###

    #column_names <- colnames(vancouver_trees)

    #print(column_names)

    vancouver_trees

    ## # A tibble: 146,611 × 20
    ##    tree_id civic_number std_street    genus_name species_name cultivar_name  
    ##      <dbl>        <dbl> <chr>         <chr>      <chr>        <chr>          
    ##  1  149556          494 W 58TH AV     ULMUS      AMERICANA    BRANDON        
    ##  2  149563          450 W 58TH AV     ZELKOVA    SERRATA      <NA>           
    ##  3  149579         4994 WINDSOR ST    STYRAX     JAPONICA     <NA>           
    ##  4  149590          858 E 39TH AV     FRAXINUS   AMERICANA    AUTUMN APPLAUSE
    ##  5  149604         5032 WINDSOR ST    ACER       CAMPESTRE    <NA>           
    ##  6  149616          585 W 61ST AV     PYRUS      CALLERYANA   CHANTICLEER    
    ##  7  149617         4909 SHERBROOKE ST ACER       PLATANOIDES  COLUMNARE      
    ##  8  149618         4925 SHERBROOKE ST ACER       PLATANOIDES  COLUMNARE      
    ##  9  149619         4969 SHERBROOKE ST ACER       PLATANOIDES  COLUMNARE      
    ## 10  149625          720 E 39TH AV     FRAXINUS   AMERICANA    AUTUMN APPLAUSE
    ## # ℹ 146,601 more rows
    ## # ℹ 14 more variables: common_name <chr>, assigned <chr>, root_barrier <chr>,
    ## #   plant_area <chr>, on_street_block <dbl>, on_street <chr>,
    ## #   neighbourhood_name <chr>, street_side_name <chr>, height_range_id <dbl>,
    ## #   diameter <dbl>, curb <chr>, date_planted <date>, longitude <dbl>,
    ## #   latitude <dbl>
…
    vancouver_trees %>% group_by(species_name) %>%
      summarise(count = n()) %>%
      arrange(desc(count))

    ## # A tibble: 283 × 2
    ##    species_name count
    ##    <chr>        <int>
    ##  1 SERRULATA    13357
    ##  2 CERASIFERA   12031
    ##  3 PLATANOIDES  11963
    ##  4 RUBRUM        8467
    ##  5 AMERICANA     5515
    ##  6 SYLVATICA     5285
    ##  7 BETULUS       5195
    ##  8 EUCHLORA   X  4427
    ##  9 FREEMANI   X  4164
    ## 10 CAMPESTRE     3477
    ## # ℹ 273 more rows
…
    distinctradius_rows <- cancer_sample %>%
      distinct(radius_worst)


    print(distinctradius_rows)

    ## # A tibble: 457 × 1
    ##    radius_worst
    ##           <dbl>
    ##  1         25.4
    ##  2         25.0
    ##  3         23.6
    ##  4         14.9
    ##  5         22.5
    ##  6         15.5
    ##  7         22.9
    ##  8         17.1
    ##  9         15.5
    ## 10         15.1
    ## # ℹ 447 more rows

    cancer_sample1 <- cancer_sample %>%
      rename(worst_radius = radius_worst)

### Code Chunk for “parking\_meters” data set

**I will use “glimpse”, “select”, and “mutate”**

    parking_meters %>% select(r_mf_9a_6p)

    ## # A tibble: 10,032 × 1
    ##    r_mf_9a_6p
    ##    <chr>     
    ##  1 $2.00     
    ##  2 $1.00     
    ##  3 $1.00     
    ##  4 $1.00     
    ##  5 $2.00     
    ##  6 $2.00     
    ##  7 $2.00     
    ##  8 $2.00     
    ##  9 $4.00     
    ## 10 $2.00     
    ## # ℹ 10,022 more rows
…
    vancouver_trees$Year_Column <- format(vancouver_trees$date_planted, "%Y") #"%Y" extracts the year from the date


    # Determinining the age of a tree by taking its birth year and substracting it from 2023. 
    vancouver_trees_age <- vancouver_trees %>%
      mutate(Year_Column = as.numeric(format(date_planted, "%Y")),
             tree_age = 2023 - Year_Column) 

    print(vancouver_trees_age)

    ## # A tibble: 146,611 × 22
    ##    tree_id civic_number std_street    genus_name species_name cultivar_name  
    ##      <dbl>        <dbl> <chr>         <chr>      <chr>        <chr>          
    ##  1  149556          494 W 58TH AV     ULMUS      AMERICANA    BRANDON        
    ##  2  149563          450 W 58TH AV     ZELKOVA    SERRATA      <NA>           
    ##  3  149579         4994 WINDSOR ST    STYRAX     JAPONICA     <NA>           
    ##  4  149590          858 E 39TH AV     FRAXINUS   AMERICANA    AUTUMN APPLAUSE
    ##  5  149604         5032 WINDSOR ST    ACER       CAMPESTRE    <NA>           
    ##  6  149616          585 W 61ST AV     PYRUS      CALLERYANA   CHANTICLEER    
    ##  7  149617         4909 SHERBROOKE ST ACER       PLATANOIDES  COLUMNARE      
    ##  8  149618         4925 SHERBROOKE ST ACER       PLATANOIDES  COLUMNARE      
    ##  9  149619         4969 SHERBROOKE ST ACER       PLATANOIDES  COLUMNARE      
    ## 10  149625          720 E 39TH AV     FRAXINUS   AMERICANA    AUTUMN APPLAUSE
    ## # ℹ 146,601 more rows
    ## # ℹ 16 more variables: common_name <chr>, assigned <chr>, root_barrier <chr>,
    ## #   plant_area <chr>, on_street_block <dbl>, on_street <chr>,
    ## #   neighbourhood_name <chr>, street_side_name <chr>, height_range_id <dbl>,
    ## #   diameter <dbl>, curb <chr>, date_planted <date>, longitude <dbl>,
    ## #   latitude <dbl>, Year_Column <dbl>, tree_age <dbl>
…
**Since I want to find out the best neighborhoods to see cherry blossoms
during the spring and red maples during the fall, I want to filter the
data to show how many cherry blossom trees there are in each
neighborhood.**

**Based on the data analysis below, it seems that Dunbar-Southlands and
Hastings-Sunrise neighborhoods have the most Cherry Blossoms.**

    #In order to find all the trees of cherry origin, I first need to find the common genus name of all cherry trees

    result <- subset(vancouver_trees, grepl("CHERRY", common_name))

    print(result)

    ## # A tibble: 18,207 × 21
    ##    tree_id civic_number std_street       genus_name species_name cultivar_name
    ##      <dbl>        <dbl> <chr>            <chr>      <chr>        <chr>        
    ##  1  155243          501 E KING EDWARD AV PRUNUS     SERRULATA    KWANZAN      
    ##  2  155251         4099 CAROLINA ST      PRUNUS     SERRULATA    KWANZAN      
    ##  3  155335          501 E KING EDWARD AV PRUNUS     SERRULATA    KWANZAN      
    ##  4  155336          501 E KING EDWARD AV PRUNUS     SERRULATA    KWANZAN      
    ##  5  155531          105 E 50TH AV        PRUNUS     X YEDOENSIS  AKEBONO      
    ##  6  155605         4327 W 16TH AV        CORNUS     MAS          <NA>         
    ##  7  155610           85 N BOUNDARY ROAD  CORNUS     MAS          <NA>         
    ##  8  155612         8340 PRINCE EDWARD ST PRUNUS     VIRGINIANA   SCHUBERT     
    ##  9  155709         4494 ST. GEORGE ST    PRUNUS     SERRULATA    KWANZAN      
    ## 10  156025         8023 LAUREL ST        PRUNUS     SERRULATA    KWANZAN      
    ## # ℹ 18,197 more rows
    ## # ℹ 15 more variables: common_name <chr>, assigned <chr>, root_barrier <chr>,
    ## #   plant_area <chr>, on_street_block <dbl>, on_street <chr>,
    ## #   neighbourhood_name <chr>, street_side_name <chr>, height_range_id <dbl>,
    ## #   diameter <dbl>, curb <chr>, date_planted <date>, longitude <dbl>,
    ## #   latitude <dbl>, Year_Column <chr>

**From this table, it seems that “PRUNUS” & “CORNUS” are the genus names
for all the cherry trees in vancouver.**

    #Now I can filter the dataset based on the names of these two genus' and then group the summed number of counts for each neighborhood. 

    cherry_trees_per_neighborhood <- vancouver_trees %>%
      filter(genus_name == "PRUNUS" | genus_name == "CORNUS") %>%
      group_by(neighbourhood_name) %>%     
      summarize(cherry_count = n())    

    print(cherry_trees_per_neighborhood)

    ## # A tibble: 22 × 2
    ##    neighbourhood_name       cherry_count
    ##    <chr>                           <int>
    ##  1 ARBUTUS-RIDGE                    1572
    ##  2 DOWNTOWN                          186
    ##  3 DUNBAR-SOUTHLANDS                2664
    ##  4 FAIRVIEW                          663
    ##  5 GRANDVIEW-WOODLAND               1206
    ##  6 HASTINGS-SUNRISE                 2145
    ##  7 KENSINGTON-CEDAR COTTAGE         1997
    ##  8 KERRISDALE                       1784
    ##  9 KILLARNEY                        1322
    ## 10 KITSILANO                        1286
    ## # ℹ 12 more rows
…
